<?xml version="1.0" ?><!-- Uploaded to: SVG Repo, www.svgrepo.com, Generator: SVG Repo Mixer Tools -->
<svg width="800px" height="800px" viewBox="0 0 32 32" id="Layer_1" version="1.1" xml:space="preserve" xmlns="http://www.w3.org/2000/svg" xmlns:xlink="http://www.w3.org/1999/xlink"><style type="text/css">
	.st0{fill:#00BBB4;}
	.st1{fill:#1B75BC;}
	.st2{fill:#F15A29;}
</style><path class="st2" d="M29.5656128,5H2.4343872C1.6422119,5,1,5.6421509,1,6.4343872v19.1311035  C1,26.3577271,1.6422119,27,2.4343872,27h27.1312256C30.3577881,27,31,26.3577271,31,25.5654907V6.4343872  C31,5.6421509,30.3577881,5,29.5656128,5z M9.59375,16.9980469H5c-0.5522461,0-1-0.4477539-1-1s0.4477539-1,1-1h4.59375  c0.5522461,0,1,0.4477539,1,1S10.1459961,16.9980469,9.59375,16.9980469z M17,21.1713867V22.25c0,0.5522461-0.4477539,1-1,1  s-1-0.4477539-1-1v-0.9515991c-1.0840454-0.2928467-2.0419922-1.2033081-2.0419922-2.8496704c0-0.5522461,0.4477539-1,1-1  s1,0.4477539,1,1c0,0.6401367,0.2763672,0.9643555,0.8212891,0.9643555c0.4882813,0,1.2626953-0.3510742,1.2626953-1.2929688  c0-0.8017578-0.5224609-1.1499023-1.7148438-1.753418c-0.9882813-0.5004883-2.3417969-1.1850586-2.3417969-2.7421875  c0-1.4801636,0.7531738-2.5593872,2.0146484-2.9150391V9.75c0-0.5522461,0.4477539-1,1-1s1,0.4477539,1,1v1.0457764  c0.8596802,0.3187256,1.5164185,0.9351807,1.8535156,1.4034424c0.3227539,0.4482422,0.2211914,1.0732422-0.2270508,1.3959961  c-0.4467773,0.3212891-1.0673828,0.2216797-1.3916016-0.2211914c-0.0327148-0.043457-0.7441406-0.9838867-1.6635742-0.753418  c-0.1757813,0.0439453-0.5859375,0.1464844-0.5859375,1.0039063c0,0.2822266,0.3671875,0.5131836,1.2451172,0.9575195  c1.1196289,0.5668945,2.8115234,1.4228516,2.8115234,3.5380859C19.0419922,19.6501465,18.1268311,20.7199097,17,21.1713867z   M27,16.9980469h-4.59375c-0.5522461,0-1-0.4477539-1-1s0.4477539-1,1-1H27c0.5522461,0,1,0.4477539,1,1  S27.5522461,16.9980469,27,16.9980469z"/></svg>